{
  "type": "service_account",
  "project_id": "swift-reef-334312",
  "private_key_id": "0bda09a11e4303e677fc02838311c3e5610a9832",
  "private_key": "-----BEGIN PRIVATE KEY-----\nMIIEvgIBADANBgkqhkiG9w0BAQEFAASCBKgwggSkAgEAAoIBAQC3bm3wLM44cJ7S\n3jDBLatqtuGyJhxTVDS0GeiFGh+7Ox1D2YHyY4yzb/nUFjO3CmaktagQ5rWvh3ZR\ng9030VifPhnV5AiCEk+MyeZO7+92NCbDeY/+BltC/yz0hfsUYLMTO/2TIR0+LjVt\nXXjh6yyCzGIX6ntJeUwFSnNesMLg7VyNpwOmB2fmGFJ2mDQ2vay/Q/4ZuzE4Hgsw\nckU7YKYKDONzHNeUjwwb/6K10R2j18bbbE7fMZCozZPmzLXUQnDe87wfejGUHS8D\noaChoIBw7w8zoBlzRSSgejD+taWTm0Yhw/161UB9CzzAkc7+DnwcCoJECJmoQbuc\npHBh9UmTAgMBAAECggEAHnO2zKijk7seouNANNHgI1c5INoy2aKhHUUv1OkBW5P0\nx87UQ+lC8ockcpE9BKY1ZCLERAoJH5rdiarajumyTL2CjH/O6ckga78Y/QHYP0dp\nKAqGXSWxAO5cCDw18qwbDpZnAoX81NXXCND7wIXKXeyQXGgRD6GTfU1e2dl+gNif\nCXnL4ofySqeUUCVCfeElUp0BC+L6fG3117HAq2oHi1mUTQ178uq/dgru/IOkbYia\nC6NcwbHvI0slxFqXCCodx6eP4olUcTrUto21CnkSAlZCUd5jTBIcYcb+uU5sh9H5\nb+1PqOZlwEnj6rEFAJsPzuNegM/8N4DyOeurwmDgAQKBgQDfLzz39y1SvOK3yM79\noAVhcgqqCxO8g24Zb4ZjUi9dGa8NeFSGemMYa6LfZI9HKIsI5FWOf2YoSXrloqMz\n6Unx+Q7URt9SaqiLbjYhu/iPEEnVglWAJ1TEqvIo43LqCXNY4eQGiDLYDjgNOq33\nq+u1sjeE+MYDnJitE/yox3DXcwKBgQDSZt1++CxqjwArcDIvvQjIk/IW3BzDx0/k\nEU6yitK4n8aAvcCTWgOdFQMLbK18ej2BQPAnaHvz64EmX0J2jxW4dNPJfaijDf2I\n0lnnvWsJlGdf5rvLf2NgPny5yyO5gqlnLmX/deFPbbQ3UjKH2OkqUggiFvdcpVO+\n18OBP939YQKBgQCGOE1tPpxmNqwOJNi+1J6HxOK+8pxy8YOkDlr+ni1XyxtoeWYz\n3aR8yjaQLFSyUaKTvWXqpZlVPyOGuHF3xaOvvr15Ugn58aTc/XHWhcnsl7ofihtL\nT9v9zmSFzIuOThKtcGQGvZ/+KUbyRcjbuuutQLl84XOMNn/nDq8S/aZSGwKBgCAO\nXhbXNuUxTmRP3sWZNnpg2BSViqhleI2V+XiIYByS80pwHqQUpdJL/j/CWhhKA47q\n1uwaJjB+pBm1j8nCeRu2aQIc7BGTsxoiemItYN5/xtQ8skYJ7ZkfTB9+jL3Z43d+\nATpPunlAjKGVG2/JI5U4FFclSqDJ6517ACV0Fp1hAoGBAJaKqGLtUubSDsvVMNL7\nEmpe8WdQNyfRhF0n0VNwpSc81jwowZKR8WFniV6aszNhyu7x8o32FjbvsiIJxeKd\nd+v8Djiaoxc7iSusJ7kThUZrRQhOecf1IUbUdpR4IIGUqW6nbg6ZBWbJipOZJhgV\n98lqJmo5nYj3KEGIeMrysY9b\n-----END PRIVATE KEY-----\n",
  "client_email": "fsd-datastore-user-2@swift-reef-334312.iam.gserviceaccount.com",
  "client_id": "118283368404186308221",
  "auth_uri": "https://accounts.google.com/o/oauth2/auth",
  "token_uri": "https://oauth2.googleapis.com/token",
  "auth_provider_x509_cert_url": "https://www.googleapis.com/oauth2/v1/certs",
  "client_x509_cert_url": "https://www.googleapis.com/robot/v1/metadata/x509/fsd-datastore-user-2%40swift-reef-334312.iam.gserviceaccount.com"
}
